My alien analysis
…
Try group_by function

alien %>% 
  group_by(colour, region, sex) %>%
  count()

## # A tibble: 30 x 4
## # Groups:   colour, region, sex [30]
##    colour region    sex       n
##    <chr>  <chr>     <chr> <int>
##  1 green  Eastland  f         7
##  2 green  Eastland  m         7
##  3 green  Northland f        10
##  4 green  Northland m         8
##  5 green  Southland f        12
##  6 green  Southland m         8
##  7 green  Westland  f         8
##  8 green  Westland  m         3
##  9 orange Eastland  f         4
## 10 orange Eastland  m         6
## # ... with 20 more rows
…
## # A tibble: 4 x 2
##   colour     n
##   <chr>  <int>
## 1 purple   105
## 2 green     63
## 3 orange    24
## 4 red        8

Sort by age

alien %>%
  arrange(desc(age))

## # A tibble: 200 x 11
##    region  subject sex   colour drives     age health  glucose  iron    iq
##    <chr>   <chr>   <chr> <chr>  <chr>    <dbl> <chr>     <dbl> <dbl> <dbl>
##  1 Northl A038    f     purple F150 Pi  80.8 slight    19.4  41.5  1126
##  2 Westla A089    f     orange Gti       75.9 very s    24.7  34.1  1011
##  3 Westla A122    f     purple Grand C  73.8 slight    19.9  30.0   949
##  4 Southl A151    m     green  Durango  73.7 very s    26.4  30.9   957
##  5 Eastla A044    m     green  Altima    70.3 slight    22.8  24.0   857
##  6 Eastla A146    m     green  A4 Quat  65.9 very s    22.7  28.9   872
##  7 Southl A053    m     purple F150 Pi  63.5 very s    23.0  38.6   972
##  8 Northl A056    f     purple Malibu    62.3 spotty     20.5  33.8   897
##  9 Northl A073    m     purple A6 Quat  61.9 slight    17.8  NA     845
## 10 Westla A029    f     purple Grand C  60.2 very s    20.4  35.6   913
## # ... with 190 more rows, and 1 more variable: weight <dbl>

Filter dataframe by male green older than 8

alien %>%
  filter(sex == "m", age > 8, colour == "green")

## # A tibble: 26 x 11
##    region  subject sex   colour drives     age health  glucose  iron    iq
##    <chr>   <chr>   <chr> <chr>  <chr>    <dbl> <chr>     <dbl> <dbl> <dbl>
##  1 Eastla A119    m     green  A4 Quat 15.0  slight    16.5  21.7   447
##  2 Eastla A189    m     green  A4 Quat 35.3  healthy    17.8  NA     673
##  3 Eastla A083    m     green  Toyota  18.6  slight    17.8  26.8   521
##  4 Eastla A146    m     green  A4 Quat 65.9  very s    22.7  28.9   872
##  5 Eastla A044    m     green  Altima   70.3  slight    22.8  24.0   857
##  6 Eastla A130    m     green  Corvette 12.8  healthy    14.4  23.8   454
##  7 Eastla A071    m     green  Grand P 13.4  slight    17.7  25.5   466
##  8 Northl A147    m     green  Navigat 35.2  slight    20.8  24.6   614
##  9 Northl A144    m     green  4Runner  8.32 slight    16.3  27.2   465
## 10 Northl A134    m     green  K1500 T 10.7  healthy    16.6  29.0   501
## # ... with 16 more rows, and 1 more variable: weight <dbl>
…
