R Workshop Notes
…
Engines look to be getting bigger!

Filtering observations

To remove (or include) observations that meet a certain criteria use filter. For example to select only the observations from mydata where drive is 4x4

mpg %>% 
  filter(drv == "4")

## # A tibble: 103 x 11
##    manufacturer model    displ  year   cyl trans   drv     cty   hwy fl   
##    <chr>        <chr>    <dbl> <int> <int> <chr>   <chr> <int> <int> <chr>
##  1 audi         a4 quat…  1.80  1999     4 manual… 4        18    26 p    
##  2 audi         a4 quat…  1.80  1999     4 auto(l… 4        16    25 p    
##  3 audi         a4 quat…  2.00  2008     4 manual… 4        20    28 p    
##  4 audi         a4 quat…  2.00  2008     4 auto(s… 4        19    27 p    
##  5 audi         a4 quat…  2.80  1999     6 auto(l… 4        15    25 p    
##  6 audi         a4 quat…  2.80  1999     6 manual… 4        17    25 p    
##  7 audi         a4 quat…  3.10  2008     6 auto(s… 4        17    25 p    
##  8 audi         a4 quat…  3.10  2008     6 manual… 4        15    25 p    
##  9 audi         a6 quat…  2.80  1999     6 auto(l… 4        15    24 p    
## 10 audi         a6 quat…  3.10  2008     6 auto(s… 4        17    25 p    
## # ... with 93 more rows, and 1 more variable: class <chr>
…
A ! in front of the test makes it opposite. The following keeps all the observations where the colour isn’t ‘blue’.

mpg %>% 
  filter(!model == "a4")

## # A tibble: 227 x 11
##    manufacturer model    displ  year   cyl trans   drv     cty   hwy fl   
##    <chr>        <chr>    <dbl> <int> <int> <chr>   <chr> <int> <int> <chr>
##  1 audi         a4 quat…  1.80  1999     4 manual… 4        18    26 p    
##  2 audi         a4 quat…  1.80  1999     4 auto(l… 4        16    25 p    
##  3 audi         a4 quat…  2.00  2008     4 manual… 4        20    28 p    
##  4 audi         a4 quat…  2.00  2008     4 auto(s… 4        19    27 p    
##  5 audi         a4 quat…  2.80  1999     6 auto(l… 4        15    25 p    
##  6 audi         a4 quat…  2.80  1999     6 manual… 4        17    25 p    
##  7 audi         a4 quat…  3.10  2008     6 auto(s… 4        17    25 p    
##  8 audi         a4 quat…  3.10  2008     6 manual… 4        15    25 p    
##  9 audi         a6 quat…  2.80  1999     6 auto(l… 4        15    24 p    
## 10 audi         a6 quat…  3.10  2008     6 auto(s… 4        17    25 p    
## # ... with 217 more rows, and 1 more variable: class <chr>

Missing values in R are coded as NA. There’s a special function, is.na() to test for missing data. So the following keeps all rows where the colour isn’t missing

mpg %>% 
  filter(!is.na(model))

## # A tibble: 234 x 11
##    manufacturer model    displ  year   cyl trans   drv     cty   hwy fl   
##    <chr>        <chr>    <dbl> <int> <int> <chr>   <chr> <int> <int> <chr>
##  1 audi         a4        1.80  1999     4 auto(l… f        18    29 p    
##  2 audi         a4        1.80  1999     4 manual… f        21    29 p    
##  3 audi         a4        2.00  2008     4 manual… f        20    31 p    
##  4 audi         a4        2.00  2008     4 auto(a… f        21    30 p    
##  5 audi         a4        2.80  1999     6 auto(l… f        16    26 p    
##  6 audi         a4        2.80  1999     6 manual… f        18    26 p    
##  7 audi         a4        3.10  2008     6 auto(a… f        18    27 p    
##  8 audi         a4 quat…  1.80  1999     4 manual… 4        18    26 p    
##  9 audi         a4 quat…  1.80  1999     4 auto(l… 4        16    25 p    
## 10 audi         a4 quat…  2.00  2008     4 manual… 4        20    28 p    
## # ... with 224 more rows, and 1 more variable: class <chr>
